## Autogenerated by Scribe. DO NOT MODIFY.

name: Endpoints
description: ''
endpoints:
  -
    httpMethods:
      - GET
    uri: api/v1/todos
    metadata:
      title: 'Display a listing of the resource.'
      description: ''
      authenticated: false
    headers:
      Content-Type: application/json
      Accept: application/json
    urlParameters: []
    queryParameters: []
    bodyParameters: []
    responses:
      -
        status: 200
        content: '{"data":[{"id":52,"title":"\uc548\ub155\ud558\uc138\uc694?","content":"\ud558\ud558\ud558\ud558","deadline":"2021-12-12","isDone":52,"updated_at":"28 minutes ago \uc804\uc5d0 \uc218\uc815\ub418\uc5c8\uc2b5\ub2c8\ub2e4."},{"id":51,"title":"\uc548\ub155\ud558\uc138\uc694?","content":"\ud558\ud558\ud558","deadline":"\ub9c8\uac10\uae30\ud55c\uc774 \uc815\ud574\uc838 \uc788\uc9c0 \uc54a\uc2b5\ub2c8\ub2e4.","isDone":51,"updated_at":"30 minutes ago \uc804\uc5d0 \uc218\uc815\ub418\uc5c8\uc2b5\ub2c8\ub2e4."},{"id":2,"title":"Reprehenderit.","content":"Quisquam ipsa dignissimos qui ea ut quis maiores. Sit velit deleniti at est.","deadline":"\ub9c8\uac10\uae30\ud55c\uc774 \uc815\ud574\uc838 \uc788\uc9c0 \uc54a\uc2b5\ub2c8\ub2e4.","isDone":2,"updated_at":"1 hour ago \uc804\uc5d0 \uc218\uc815\ub418\uc5c8\uc2b5\ub2c8\ub2e4."},{"id":3,"title":"Eum.","content":"Cum blanditiis voluptas est molestiae ex. Maiores est omnis labore nam atque.","deadline":"\ub9c8\uac10\uae30\ud55c\uc774 \uc815\ud574\uc838 \uc788\uc9c0 \uc54a\uc2b5\ub2c8\ub2e4.","isDone":3,"updated_at":"1 hour ago \uc804\uc5d0 \uc218\uc815\ub418\uc5c8\uc2b5\ub2c8\ub2e4."},{"id":4,"title":"Iste quae.","content":"Aut voluptatibus voluptates cum nulla. Eos id et reiciendis numquam placeat.","deadline":"\ub9c8\uac10\uae30\ud55c\uc774 \uc815\ud574\uc838 \uc788\uc9c0 \uc54a\uc2b5\ub2c8\ub2e4.","isDone":4,"updated_at":"1 hour ago \uc804\uc5d0 \uc218\uc815\ub418\uc5c8\uc2b5\ub2c8\ub2e4."}],"meta":{"current_page":1,"from":1,"last_page":11,"path":"http:\/\/127.0.0.1:8000\/api\/v1\/todos","per_page":5,"to":5,"total":51}}'
        headers:
          cache-control: 'no-cache, private'
          content-type: application/json
          x-ratelimit-limit: '60'
          x-ratelimit-remaining: '57'
          access-control-allow-origin: '*'
        description: null
    responseFields: []
  -
    httpMethods:
      - POST
    uri: api/v1/todos
    metadata:
      title: 'Store a newly created resource in storage.'
      description: ''
      authenticated: false
    headers:
      Content-Type: application/json
      Accept: application/json
    urlParameters: []
    queryParameters: []
    bodyParameters:
      title:
        name: title
        description: 'Must not be greater than 50 characters.'
        required: true
        example: qecojijmmixynnibhlussaqdznaxngxzsstkqwxqnnmu
        type: string
      content:
        name: content
        description: 'Must not be greater than 255 characters.'
        required: false
        example: ldalxaoielhxaalvwortpoyyhfmhjlrtebrdiwwixsnitpjqzdmhodubchclytwilexicepuqlzjolufcgoofzozrxuogvmhphetinmaejnzqubgdxktyzjkwlakcxleqchgbbauiyjvkiqhadmczxalsmquwsxjhmpfnyogpdkcpogmtjulkoagvwkrbvnqqbcjcofcvycwuwxziztvravmbcftgvmthkuqwnabixlukwzvmvzovouuamzmhs
        type: string
      deadline:
        name: deadline
        description: 'Must be a valid date.'
        required: false
        example: '2021-08-22T11:21:44'
        type: string
      isDone:
        name: isDone
        description: ''
        required: true
        example: false
        type: boolean
    responses: []
    responseFields: []
  -
    httpMethods:
      - GET
    uri: 'api/v1/todos/{id}'
    metadata:
      title: 'Display the specified resource.'
      description: ''
      authenticated: false
    headers:
      Content-Type: application/json
      Accept: application/json
    urlParameters:
      id:
        name: id
        description: 'The ID of the todo.'
        required: true
        example: 14
        type: integer
    queryParameters: []
    bodyParameters: []
    responses:
      -
        status: 404
        content: '{"message":"\ud574\ub2f9 \ud560\uc77c\uc744 \ucc3e\uc744 \uc218\uac00 \uc5c6\uc2b5\ub2c8\ub2e4."}'
        headers:
          cache-control: 'no-cache, private'
          content-type: application/json
          x-ratelimit-limit: '60'
          x-ratelimit-remaining: '56'
          access-control-allow-origin: '*'
        description: null
    responseFields: []
  -
    httpMethods:
      - PUT
      - PATCH
    uri: 'api/v1/todos/{id}'
    metadata:
      title: 'Update the specified resource in storage.'
      description: ''
      authenticated: false
    headers:
      Content-Type: application/json
      Accept: application/json
    urlParameters:
      id:
        name: id
        description: 'The ID of the todo.'
        required: true
        example: 5
        type: integer
    queryParameters: []
    bodyParameters:
      title:
        name: title
        description: 'Must not be greater than 50 characters.'
        required: true
        example: cnoilpkytkikpgxorgniypsxpm
        type: string
      content:
        name: content
        description: 'Must not be greater than 255 characters.'
        required: false
        example: pekjnaljrgzpexnalqsugiehcdnxwbngzwxytsgvvfqrw
        type: string
      deadline:
        name: deadline
        description: 'Must be a valid date.'
        required: false
        example: '2021-08-22T11:21:44'
        type: string
      isDone:
        name: isDone
        description: ''
        required: true
        example: false
        type: boolean
    responses: []
    responseFields: []
  -
    httpMethods:
      - DELETE
    uri: 'api/v1/todos/{id}'
    metadata:
      title: 'Remove the specified resource from storage.'
      description: ''
      authenticated: false
    headers:
      Content-Type: application/json
      Accept: application/json
    urlParameters:
      id:
        name: id
        description: 'The ID of the todo.'
        required: true
        example: 1
        type: integer
    queryParameters: []
    bodyParameters: []
    responses: []
    responseFields: []
